%YAML 1.1
%TAG !u! tag:unity3d.com,2011:
--- !u!1001 &100100000
Prefab:
  m_ObjectHideFlags: 1
  serializedVersion: 2
  m_Modification:
    m_TransformParent: {fileID: 0}
    m_Modifications: []
    m_RemovedComponents: []
  m_SourcePrefab: {fileID: 0}
  m_RootGameObject: {fileID: 1963517772558026}
  m_IsPrefabAsset: 1
--- !u!1 &1963517772558026
GameObject:
  m_ObjectHideFlags: 0
  m_CorrespondingSourceObject: {fileID: 0}
  m_PrefabInternal: {fileID: 100100000}
  serializedVersion: 6
  m_Component:
  - component: {fileID: 4604424397633906}
  - component: {fileID: 114453098083415188}
  m_Layer: 0
  m_Name: TerrainManagerNewRoadTiles
  m_TagString: TerrainManager
  m_Icon: {fileID: 0}
  m_NavMeshLayer: 0
  m_StaticEditorFlags: 0
  m_IsActive: 1
--- !u!4 &4604424397633906
Transform:
  m_ObjectHideFlags: 1
  m_CorrespondingSourceObject: {fileID: 0}
  m_PrefabInternal: {fileID: 100100000}
  m_GameObject: {fileID: 1963517772558026}
  m_LocalRotation: {x: 0, y: 0, z: 0, w: 1}
  m_LocalPosition: {x: 0, y: 0, z: 0}
  m_LocalScale: {x: 1, y: 1, z: 1}
  m_Children: []
  m_Father: {fileID: 0}
  m_RootOrder: 0
  m_LocalEulerAnglesHint: {x: 0, y: 0, z: 0}
--- !u!114 &114453098083415188
MonoBehaviour:
  m_ObjectHideFlags: 1
  m_CorrespondingSourceObject: {fileID: 0}
  m_PrefabInternal: {fileID: 100100000}
  m_GameObject: {fileID: 1963517772558026}
  m_Enabled: 1
  m_EditorHideFlags: 0
  m_Script: {fileID: 11500000, guid: 3325c6d62411c954294d6ac5c6a83e38, type: 3}
  m_Name: 
  m_EditorClassIdentifier: 
  numStraightTiles: 3
  rawStraightTiles:
  - {fileID: 4133699809009162, guid: 879002fd9e08ac448aaccdea25802a58, type: 2}
  - {fileID: 4945000359902366, guid: 0e110a085708a034aa5c979818f9691d, type: 2}
  - {fileID: 4689716891769162, guid: fb7a9e2299967a049ac89540bb46a69f, type: 2}
  - {fileID: 4623339074599170, guid: 878cb770d40124882b250a07fab7f4e8, type: 2}
  - {fileID: 4133699809009162, guid: 879002fd9e08ac448aaccdea25802a58, type: 2}
  - {fileID: 4689716891769162, guid: fb7a9e2299967a049ac89540bb46a69f, type: 2}
  - {fileID: 4945000359902366, guid: 0e110a085708a034aa5c979818f9691d, type: 2}
  - {fileID: 4840034168418328, guid: 4706838cba43649409aef1d763a1515c, type: 2}
  - {fileID: 4096877505510596, guid: 786d1a29d596b494db610cb593197926, type: 2}
  - {fileID: 4971208229832364, guid: 8e5e69d525846407c87b20043187b3f2, type: 2}
  - {fileID: 0}
  - {fileID: 0}
  - {fileID: 0}
  - {fileID: 0}
  - {fileID: 0}
  - {fileID: 0}
  - {fileID: 0}
  - {fileID: 0}
  - {fileID: 0}
  - {fileID: 0}
  numLeftTiles: 2
  rawLeftTiles:
  - {fileID: 4957169266454214, guid: 68f31fb794027b5478246cbe7d5f3a21, type: 2}
  - {fileID: 4935585049384454, guid: b50af35216f884740b58f3a91283238a, type: 2}
  - {fileID: 4221336648218328, guid: 32449e82348d3481a839e809569d2ade, type: 2}
  - {fileID: 4896023673343482, guid: fade04830fa1d4f058b5c2f1ce3b6814, type: 2}
  - {fileID: 0}
  - {fileID: 0}
  - {fileID: 0}
  - {fileID: 0}
  - {fileID: 0}
  - {fileID: 0}
  - {fileID: 0}
  - {fileID: 0}
  - {fileID: 0}
  - {fileID: 0}
  - {fileID: 0}
  - {fileID: 0}
  - {fileID: 0}
  - {fileID: 0}
  - {fileID: 0}
  - {fileID: 0}
  numRightTiles: 2
  rawRightTiles:
  - {fileID: 4764571398259720, guid: 211e25dee3b0a5041891590d277e75a1, type: 2}
  - {fileID: 4071602562699474, guid: 1fe648ec7bbc9f842a951bb52cac4ab2, type: 2}
  - {fileID: 4659504579021304, guid: 6947538d27bb94386ae38737e8767774, type: 2}
  - {fileID: 4723301148747096, guid: 2b284bea087f04123a4bd7347e25c654, type: 2}
  - {fileID: 0}
  - {fileID: 0}
  - {fileID: 0}
  - {fileID: 0}
  - {fileID: 0}
  - {fileID: 0}
  - {fileID: 0}
  - {fileID: 0}
  - {fileID: 0}
  - {fileID: 0}
  - {fileID: 0}
  - {fileID: 0}
  - {fileID: 0}
  - {fileID: 0}
  - {fileID: 0}
  - {fileID: 0}
  StartingRoadLen: 4
  rawStartingRoad:
  - {fileID: 4945000359902366, guid: 0e110a085708a034aa5c979818f9691d, type: 2}
  - {fileID: 4133699809009162, guid: 879002fd9e08ac448aaccdea25802a58, type: 2}
  - {fileID: 4957169266454214, guid: 68f31fb794027b5478246cbe7d5f3a21, type: 2}
  - {fileID: 4764571398259720, guid: 211e25dee3b0a5041891590d277e75a1, type: 2}
  - {fileID: 0}
  - {fileID: 0}
  - {fileID: 0}
  - {fileID: 0}
  - {fileID: 0}
  - {fileID: 0}
  - {fileID: 0}
  - {fileID: 0}
  - {fileID: 0}
  - {fileID: 0}
  - {fileID: 0}
  - {fileID: 0}
  - {fileID: 0}
  - {fileID: 0}
  - {fileID: 0}
  - {fileID: 0}
  maxActiveTerrain: 500
  minActiveTerrain: 0
  TerrainBuffer: 200
  currentRoadEnd: {x: 0, y: 0, z: 0}
  currentRotAngle: 0
  tracker: {fileID: 0}
  DeadZone: {fileID: 0}
  OffRoadTracker: {fileID: 0}
  PUThresholdValue: 0.25
  CoinPrefab: {fileID: 4200105550153584, guid: a92b76da50b0c3c419c2cf655e46595c, type: 2}
  PUPrefab: {fileID: 4130296002889086, guid: 0a9449ebcd9a1e942b7ce1ddddb4dc2f, type: 2}
