%YAML 1.1
%TAG !u! tag:unity3d.com,2011:
--- !u!1001 &100100000
Prefab:
  m_ObjectHideFlags: 1
  serializedVersion: 2
  m_Modification:
    m_TransformParent: {fileID: 0}
    m_Modifications: []
    m_RemovedComponents: []
  m_SourcePrefab: {fileID: 0}
  m_RootGameObject: {fileID: 1660152438671482}
  m_IsPrefabAsset: 1
--- !u!1 &1660152438671482
GameObject:
  m_ObjectHideFlags: 0
  m_CorrespondingSourceObject: {fileID: 0}
  m_PrefabInternal: {fileID: 100100000}
  serializedVersion: 6
  m_Component:
  - component: {fileID: 4779509231556018}
  - component: {fileID: 114762689182180754}
  m_Layer: 0
  m_Name: TerrainManager
  m_TagString: Untagged
  m_Icon: {fileID: 0}
  m_NavMeshLayer: 0
  m_StaticEditorFlags: 0
  m_IsActive: 1
--- !u!4 &4779509231556018
Transform:
  m_ObjectHideFlags: 1
  m_CorrespondingSourceObject: {fileID: 0}
  m_PrefabInternal: {fileID: 100100000}
  m_GameObject: {fileID: 1660152438671482}
  m_LocalRotation: {x: 0, y: 0, z: 0, w: 1}
  m_LocalPosition: {x: 0, y: 0, z: 0}
  m_LocalScale: {x: 1, y: 1, z: 1}
  m_Children: []
  m_Father: {fileID: 0}
  m_RootOrder: 0
  m_LocalEulerAnglesHint: {x: 0, y: 0, z: 0}
--- !u!114 &114762689182180754
MonoBehaviour:
  m_ObjectHideFlags: 1
  m_CorrespondingSourceObject: {fileID: 0}
  m_PrefabInternal: {fileID: 100100000}
  m_GameObject: {fileID: 1660152438671482}
  m_Enabled: 1
  m_EditorHideFlags: 0
  m_Script: {fileID: 11500000, guid: 3325c6d62411c954294d6ac5c6a83e38, type: 3}
  m_Name: 
  m_EditorClassIdentifier: 
  numStraightTiles: 4
  rawStraightTiles:
  - {fileID: 4840034168418328, guid: 4706838cba43649409aef1d763a1515c, type: 2}
  - {fileID: 4096877505510596, guid: 786d1a29d596b494db610cb593197926, type: 2}
  - {fileID: 4971208229832364, guid: 8e5e69d525846407c87b20043187b3f2, type: 2}
  - {fileID: 4623339074599170, guid: 878cb770d40124882b250a07fab7f4e8, type: 2}
  - {fileID: 0}
  - {fileID: 0}
  - {fileID: 0}
  - {fileID: 0}
  - {fileID: 0}
  - {fileID: 0}
  - {fileID: 0}
  - {fileID: 0}
  - {fileID: 0}
  - {fileID: 0}
  - {fileID: 0}
  - {fileID: 0}
  - {fileID: 0}
  - {fileID: 0}
  - {fileID: 0}
  - {fileID: 0}
  numLeftTiles: 2
  rawLeftTiles:
  - {fileID: 4221336648218328, guid: 32449e82348d3481a839e809569d2ade, type: 2}
  - {fileID: 4896023673343482, guid: fade04830fa1d4f058b5c2f1ce3b6814, type: 2}
  - {fileID: 0}
  - {fileID: 0}
  - {fileID: 0}
  - {fileID: 0}
  - {fileID: 0}
  - {fileID: 0}
  - {fileID: 0}
  - {fileID: 0}
  - {fileID: 0}
  - {fileID: 0}
  - {fileID: 0}
  - {fileID: 0}
  - {fileID: 0}
  - {fileID: 0}
  - {fileID: 0}
  - {fileID: 0}
  - {fileID: 0}
  - {fileID: 0}
  numRightTiles: 2
  rawRightTiles:
  - {fileID: 4659504579021304, guid: 6947538d27bb94386ae38737e8767774, type: 2}
  - {fileID: 4723301148747096, guid: 2b284bea087f04123a4bd7347e25c654, type: 2}
  - {fileID: 0}
  - {fileID: 0}
  - {fileID: 0}
  - {fileID: 0}
  - {fileID: 0}
  - {fileID: 0}
  - {fileID: 0}
  - {fileID: 0}
  - {fileID: 0}
  - {fileID: 0}
  - {fileID: 0}
  - {fileID: 0}
  - {fileID: 0}
  - {fileID: 0}
  - {fileID: 0}
  - {fileID: 0}
  - {fileID: 0}
  - {fileID: 0}
  StartingRoadLen: 3
  rawStartingRoad:
  - {fileID: 4623339074599170, guid: 878cb770d40124882b250a07fab7f4e8, type: 2}
  - {fileID: 4659504579021304, guid: 6947538d27bb94386ae38737e8767774, type: 2}
  - {fileID: 4623339074599170, guid: 878cb770d40124882b250a07fab7f4e8, type: 2}
  - {fileID: 0}
  - {fileID: 0}
  - {fileID: 0}
  - {fileID: 0}
  - {fileID: 0}
  - {fileID: 0}
  - {fileID: 0}
  - {fileID: 0}
  - {fileID: 0}
  - {fileID: 0}
  - {fileID: 0}
  - {fileID: 0}
  - {fileID: 0}
  - {fileID: 0}
  - {fileID: 0}
  - {fileID: 0}
  - {fileID: 0}
  maxActiveTerrain: 6
  minActiveTerrain: 0
  TerrainBuffer: 1
  currentRoadEnd: {x: 0, y: 0, z: 0}
  currentRotAngle: 0
  tracker: {fileID: 0}
  DeadZone: {fileID: 0}
  CoinPrefab: {fileID: 4200105550153584, guid: a92b76da50b0c3c419c2cf655e46595c, type: 2}
