%YAML 1.1
%TAG !u! tag:unity3d.com,2011:
--- !u!1045 &1
EditorBuildSettings:
  m_ObjectHideFlags: 0
  serializedVersion: 2
  m_Scenes:
  - enabled: 1
    path: Assets/MainMenu.unity
    guid: 58a6cc0a8e7ea6d4f94938caa943d8a6
  - enabled: 1
    path: Assets/RoadsScene.unity
    guid: 9629ec4e9ba80ae4d9637bf2062d9ef9
